Assignment 9: Visualization - Revealing a graph
…
library(gganimate)
library(gifski)
library(tidyverse)
library(ggplot2)
library(knitr)

Use the dataset by of covid 19 by WHO at https://covid19.who.int/WHO-COVID-19-global-data.csv. Find the three countries with the most numbers of deaths by Covid-19.

library(tidyverse)
df <- read_csv('https://covid19.who.int/WHO-COVID-19-global-data.csv')
df %>% 
  filter(Date_reported=='2020-10-05') %>%
  arrange(-Cumulative_deaths)

## # A tibble: 235 x 8
##    Date_reported Country_code Country WHO_region New_cases Cumulative_cases
##    <date>        <chr>        <chr>   <chr>          <dbl>            <dbl>
##  1 2020-10-05    US           United~ AMRO           49036          7305270
##  2 2020-10-05    BR           Brazil  AMRO           26310          4906833
##  3 2020-10-05    IN           India   SEARO          74442          6623815
##  4 2020-10-05    MX           Mexico  AMRO            4863           757953
##  5 2020-10-05    GB           The Un~ EURO           22961           502982
##  6 2020-10-05    IT           Italy   EURO            2578           325329
##  7 2020-10-05    PE           Peru    AMRO            3421           824985
##  8 2020-10-05    ES           Spain   EURO            6286           817152
##  9 2020-10-05    FR           France  EURO           12545           593248
## 10 2020-10-05    IR           Iran (~ EMRO            3653           471772
## # ... with 225 more rows, and 2 more variables: New_deaths <dbl>,
## #   Cumulative_deaths <dbl>
…
Create the new variable (column) death_per_cases recording the number of deaths per cases (Hint: divide cumulative deaths by cumulative cases). What are the three countries with the highest deaths per cases?

  df$death_per_cases <- df$Cumulative_cases/df$Cumulative_deaths
df %>% 
  filter(Date_reported=='2020-10-05') %>%
  arrange(-death_per_cases)

## # A tibble: 235 x 9
##    Date_reported Country_code Country WHO_region New_cases Cumulative_cases
##    <date>        <chr>        <chr>   <chr>          <dbl>            <dbl>
##  1 2020-10-05    AI           Anguil~ AMRO               0                3
##  2 2020-10-05    BT           Bhutan  SEARO             15              298
##  3 2020-10-05    KH           Cambod~ WPRO               2              280
##  4 2020-10-05    DM           Domini~ AMRO               0               31
##  5 2020-10-05    ER           Eritrea AFRO               0              398
##  6 2020-10-05    FK           Falkla~ AMRO               0               13
##  7 2020-10-05    FO           Faroe ~ EURO               1              474
##  8 2020-10-05    GI           Gibral~ EURO              12              428
##  9 2020-10-05    GL           Greenl~ EURO               0               14
## 10 2020-10-05    GD           Grenada AMRO               0               24
## # ... with 225 more rows, and 3 more variables: New_deaths <dbl>,
## #   Cumulative_deaths <dbl>, death_per_cases <dbl>
…
